[
    {
        "title" : "Starbucks",
        "latitude" : 37.331992,
        "longitude" : -122.031348,
        "raing" : 4.2
    },
    {
        "title" : "Tuscany Coffee",
        "latitude" : 37.333244,
        "longitude" : -122.032240,
        "raing" : 4.8
    }
]
